{
"url":"http://www.globalsqa.com/angularJs-protractor/BankingProject/#/login",
"title":"XYZ Bank",
"amountToDeposit":1000000000,
"withdrawAmount":10000,
"accountholder_name":"Harry Potter",
"money_type":"Rupee",
"fName":"Harry"
}